…
A function with input of year from 2013-2015 and returns a file and a path to the data files in the source package.

year_input<-2013
make_filename(year_input)
#> [1] "C:/Users/Tedros/Documents/R/win-library/4.0/farsdata/extdata/accident_2013.csv.bz2"

fars_read_year function

A function which takes an input of years and uses make_file function to create a file, and then reads for each year using a function fars_read. Result of this function will be used as input to function fars_summarize_years.

library(dplyr)
fars_read_years(2015)
#> [[1]]
#> # A tibble: 32,166 x 2
#>    MONTH  year
#>    <dbl> <dbl>
#>  1     1  2015
#>  2     1  2015
#>  3     1  2015
#>  4     1  2015
#>  5     1  2015
#>  6     1  2015
#>  7     1  2015
#>  8     1  2015
#>  9     1  2015
#> 10     1  2015
#> # ... with 32,156 more rows
…
